<?xml version="1.0" encoding="UTF-8" standalone="no"?>
<svg
   xmlns:dc="http://purl.org/dc/elements/1.1/"
   xmlns:cc="http://creativecommons.org/ns#"
   xmlns:rdf="http://www.w3.org/1999/02/22-rdf-syntax-ns#"
   xmlns:svg="http://www.w3.org/2000/svg"
   xmlns="http://www.w3.org/2000/svg"
   viewBox="0 0 480 682.66669"
   height="682.66669"
   width="480"
   xml:space="preserve"
   id="svg2"
   version="1.1"><metadata
     id="metadata8"><rdf:RDF><cc:Work
         rdf:about=""><dc:format>image/svg+xml</dc:format><dc:type
           rdf:resource="http://purl.org/dc/dcmitype/StillImage" /></cc:Work></rdf:RDF></metadata><defs
     id="defs6"><clipPath
       id="clipPath18"
       clipPathUnits="userSpaceOnUse"><path
         id="path16"
         d="M 0,512 H 360 V 0 H 0 Z" /></clipPath></defs><g
     transform="matrix(1.3333333,0,0,-1.3333333,0,682.66667)"
     id="g10"><g
       id="g12"><g
         clip-path="url(#clipPath18)"
         id="g14"><g
           transform="translate(308.8662,255.1816)"
           id="g20"><path
             id="path22"
             style="fill:#2b2c35;fill-opacity:1;fill-rule:nonzero;stroke:none"
             d="m 0,0 -126.594,-211.367 -129.905,209.34 c -14.633,23.631 -22.567,50.895 -22.567,78.845 0,82.71 67.49,150.201 150.2,150.201 82.71,0 150.099,-67.491 150.099,-150.201 C 21.233,49.697 13.823,23.13 0,0 m -128.866,256.818 c -99.252,0 -180,-80.748 -180,-180 0,-33.534 9.289,-66.259 26.869,-94.652 l 142.885,-230.257 c 2.737,-4.411 7.559,-7.091 12.745,-7.091 h 0.119 c 5.23,0.041 10.062,2.804 12.75,7.292 L 25.745,-15.401 c 16.609,27.791 25.389,59.68 25.389,92.219 0,99.252 -80.748,180 -180,180" /></g><g
           transform="translate(180,271.7998)"
           id="g24"><path
             id="path26"
             style="fill:#ff6d00;fill-opacity:1;fill-rule:nonzero;stroke:none"
             d="m 0,0 c -33.257,0 -60.2,27.033 -60.2,60.2 0,33.084 27.116,60.2 60.2,60.2 33.084,0 60.1,-27.116 60.1,-60.2 C 60.1,27.517 33.784,0 0,0 m 0,150.2 c -49.626,0 -90,-40.374 -90,-90 0,-49.309 39.717,-90 90,-90 50.903,0 90,41.233 90,90 0,49.626 -40.374,90 -90,90" /></g></g></g></g></svg>